product_name,product_price
A2奶粉1段,100
A2奶粉2段,100
A2奶粉3段,80
贝拉米奶粉1段,80
贝拉米奶粉2段,70
贝拉米奶粉3段,70
爱他美奶粉1段,80
爱他美奶粉2段,80
爱他美奶粉3段,70
爱他美奶粉4段,70
可瑞康羊奶1段,120
可瑞康羊奶2段,120
可瑞康羊奶3段,120
Swisse skin hair nail,60
Swisse Vitamin,50
Swisse Chlorophyll,45
Swisse Women's vita,45
Swisse Men's Vita,45
Knoppers,25
Ostelin,25
HC Grape Seed,80
Goat 香皂,5
Femfresh,15
Swisse Cranberry,58
Blackmores Fish oil,63
Blackmores Celery,32
Nulax,28