receiver_name,receiver_phone,receiver_address_1,receiver_address_2,receiver_postcode,receiver_licence
胡旭东,15383407773,山西省太原市公安局迎泽分局 青年东街九号,,,142332198707192437
王莉莉,13606185978,江苏省无锡市新区长江北路奕淳公寓,一期2号2504室,,
吴雅莉,13600668367,浙江省温州市瓯海区振瓯路,联众华庭东栋302,,
徐汇丰,13605874982,浙江省温州市永嘉桥头镇镇中东路10号,,,330304198708138131
徐益仁,13605874982,浙江省温州市永嘉桥头镇镇中东路12号,,,330321195911108117
李斌斌,18977731234,广西钦州市钦北区银河街三巷34号,,,450702198212060015
何静,15077420060,广西省梧州蒙山县湄江南路11号,国税局,,
胡旭东,15383407773,山西省太原市公安局迎泽分局 青年东街九号,,,142332198707192437
马金柱,15383407773,山西省太原市公安局迎泽分局 青年东街九号,,,140103196008100034
马梦诗,15383407773,山西省太原市公安局迎泽分局 青年东街九号,,,
徐艳艳,13605874982,浙江省温州市永嘉桥头镇镇中东路14号,,,330304198410258122
詹艳艳,15958480369,浙江省义乌市荷塘雅居2号楼一单元902,,,330324197801160203
楼海娟,15958480369,浙江省义乌市荷塘雅居2号楼一单元1002,,,33072519690611432X
陈施施,13706675058,浙江鹿城区上吕浦锦园9幢401,,,
项舜,15267606667,浙江省临海市杜桥镇南大路元江网吧,,,
张爱玲,13930342444,河北秦皇岛山海关区船厂路关盛獒园,,,
柯晶晶,15858796800,浙江乐清虹桥镇幸福东路122号后门,,,
蒋农,13959023023,福建省龙岩市新罗区中元大酒店副楼1301,,,352601196101161531
蒋文艳,13959023023,福建省龙岩市新罗区中元大酒店副楼1603,,,352601195909041546
吴波,13861215580,江苏省常州市武进区郑陆镇常郑路93号,东腾金属热处理有限公司,,320483198208315014
兰秀梅,13861215580,江苏省常州市武进区郑陆镇常郑路93号,东腾金属热处理有限公司,,330304198708138131
张晓蓉,13861215580,江苏省常州市武进区郑陆镇常郑路93号,东腾金属热处理有限公司,,330321195911108117
兰秀梅,13861215580,江苏省常州市武进区郑陆镇常郑路93号,东腾金属热处理有限公司,,330304198708138131
张晓蓉,13861215580,江苏省常州市武进区郑陆镇常郑路93号,东腾金属热处理有限公司,,330321195911108117
何苗,13886119998,湖北省武汉市青山区工业四路怡兴小区,5栋20门301室,,420107198607121525
黄钦君,13780017890,浙江宁波鄞州区天源巷127号b101,南苑国际小区,,
潘黎清,13780017890,浙江宁波鄞州区天源巷127号b101,南苑国际小区,,
东方,18807086068,江西省 南昌市 西湖区 永乐路666号 ,南昌农商银行 朝阳分理处,,210302198709172446
张梁,15988772809,浙江温州龙湾南翔景苑,百合1幢3单元506室,,330304198511200915
王村,13957700901,浙江温州市永中南翔景苑,22幢106室,,330304199112073319
王乒乒,18606639837,浙江温州龙湾永强大道3740号,,,330304198801233328
孙瑶瑶,18658757807,浙江温州市龙湾区海滨街道城,东北街21弄1幢15号,,330304198807193320
吴守波,18958836260,浙江温州市龙湾区永兴街道五溪新村1幢1号,,,330304198612260976
宦建仁,18961126711,江苏省常州市钟楼区吊桥路,东头村3幢乙单元102,,320411195802090811
李长虹,13904173595,辽宁营口鲅鱼圈青龙山大街营口,鲅鱼圈耐火材料有限公司,,
赵益樱,15990162888,浙江杭州富阳市江滨西大道 100号,山水华庭22棟,,
张秋琴,13951150730,浙江杭州富阳市江滨西大道 100号,山水华庭22棟,,
吴波,13861215580,浙江杭州富阳市江滨西大道 100号,山水华庭22棟,,
吴建良,13861215580,浙江杭州富阳市江滨西大道 100号,山水华庭22棟,,
潘黎清,13780017890,浙江宁波鄞州区天源巷127号b101,南苑国际小区,,
黄钦君,13780017890,浙江宁波鄞州区天源巷127号b101,南苑国际小区,,
朱华程,18262299906,江苏无锡崇安区金科新大陆2-1604,,,
令狐克亚,13629789952,重庆市渝北区双凤路10号,中国银行渝北支行,,500110198711133225
令狐克亚,18623411022,重庆渝北区空港新城金色池塘3-1-3-2,,,500110198711133225
贾永腾,13886549999,湖北咸宁市温泉城区长安大道312号,龙泉佳苑F栋,,421202198703271077
周若谷,13587616868,浙江省温州市黎明西路143号,海关大楼1605,,
朱晓静,13587872520,浙江省温州市鹿城桥儿头木兰4棟308,,,
蔡律智,13567777305,浙江省瑞安市塘厦镇镇中路107号,,,